dplyr 1: key verbs
…
---
## First, let's get some data

```r
library(readr)

cars2018 <- read_csv("data/cars2018.csv")
cars2018
```

```
## # A tibble: 1,144 x 15
##    Model    ID Displacement Cylinders Gears Transmission   MPG Aspiration LTC  
##    <chr> <dbl>        <dbl>     <dbl> <dbl> <chr>        <dbl> <chr>      <chr>
##  1 Acur…    57          3.5         6     9 Manual          21 Turbochar… Y    
##  2 ALFA…   410          1.8         4     6 Manual          28 Turbochar… Y    
##  3 Audi…    65          5.2        10     7 Manual          17 Naturally… Y    
##  4 Audi…    71          5.2        10     7 Manual          18 Naturally… Y    
##  5 Audi…    66          5.2        10     7 Manual          17 Naturally… Y    
##  6 Audi…    72          5.2        10     7 Manual          18 Naturally… Y    
##  7 Audi…    46          2           4     6 Manual          26 Turbochar… Y    
##  8 BMW …   488          3           6     7 Manual          20 Turbochar… N    
##  9 Buga…    38          8          16     7 Manual          11 Turbochar… Y    
## 10 Chev…   278          6.2         8     8 Automatic       18 Naturally… Y    
## # … with 1,134 more rows, and 6 more variables: Drive <chr>, MaxEthanol <dbl>,
## #   Fuel <chr>, Intake <dbl>, Exhaust <dbl>, FuelInjection <chr>
```
…
---
## filter

#### a function for specifying which rows to keep

Example 1: How do we get all employees that are salaried?

```r
manual <- filter(cars2018, Transmission == "Manual")
manual
```

```
## # A tibble: 299 x 15
##    Model    ID Displacement Cylinders Gears Transmission   MPG Aspiration LTC  
##    <chr> <dbl>        <dbl>     <dbl> <dbl> <chr>        <dbl> <chr>      <chr>
##  1 Acur…    57          3.5         6     9 Manual          21 Turbochar… Y    
##  2 ALFA…   410          1.8         4     6 Manual          28 Turbochar… Y    
##  3 Audi…    65          5.2        10     7 Manual          17 Naturally… Y    
##  4 Audi…    71          5.2        10     7 Manual          18 Naturally… Y    
##  5 Audi…    66          5.2        10     7 Manual          17 Naturally… Y    
##  6 Audi…    72          5.2        10     7 Manual          18 Naturally… Y    
##  7 Audi…    46          2           4     6 Manual          26 Turbochar… Y    
##  8 BMW …   488          3           6     7 Manual          20 Turbochar… N    
##  9 Buga…    38          8          16     7 Manual          11 Turbochar… Y    
## 10 Chev…   285          6.2         8     7 Manual          18 Turbochar… N    
## # … with 289 more rows, and 6 more variables: Drive <chr>, MaxEthanol <dbl>,
## #   Fuel <chr>, Intake <dbl>, Exhaust <dbl>, FuelInjection <chr>
```
…
---
## select

#### a function for specifying which columns to keep

Example: How do we keep only the <tt>Model</tt>, <tt>MPG</tt>, <tt>Transmission</tt> and <tt>Cylinders</tt> columns?  

```r
cars_narrow <- select(cars2018, Model, MPG, Transmission, Cylinders)

cars_narrow
```

```
## # A tibble: 1,144 x 4
##    Model                          MPG Transmission Cylinders
##    <chr>                        <dbl> <chr>            <dbl>
##  1 Acura NSX                       21 Manual               6
##  2 ALFA ROMEO 4C                   28 Manual               4
##  3 Audi R8 AWD                     17 Manual              10
##  4 Audi R8 RWD                     18 Manual              10
##  5 Audi R8 Spyder AWD              17 Manual              10
##  6 Audi R8 Spyder RWD              18 Manual              10
##  7 Audi TT Roadster quattro        26 Manual               4
##  8 BMW M4 DTM Champions Edition    20 Manual               6
##  9 Bugatti Chiron                  11 Manual              16
## 10 Chevrolet CORVETTE              18 Automatic            8
## # … with 1,134 more rows
```
…
#### Example: we can use the <tt>-</tt> to specify columns we don't want to keep:

How do we keep all columns except the <tt>ID</tt>, <tt>Intake</tt>, and <tt>Exhaust</tt>

```r
cars_alt <- select(cars2018, -ID, -Intake, -Exhaust)
cars_alt
```

```
## # A tibble: 1,144 x 12
##    Model Displacement Cylinders Gears Transmission   MPG Aspiration LTC   Drive
##    <chr>        <dbl>     <dbl> <dbl> <chr>        <dbl> <chr>      <chr> <chr>
##  1 Acur…          3.5         6     9 Manual          21 Turbochar… Y     All …
##  2 ALFA…          1.8         4     6 Manual          28 Turbochar… Y     2-Wh…
##  3 Audi…          5.2        10     7 Manual          17 Naturally… Y     All …
##  4 Audi…          5.2        10     7 Manual          18 Naturally… Y     2-Wh…
##  5 Audi…          5.2        10     7 Manual          17 Naturally… Y     All …
##  6 Audi…          5.2        10     7 Manual          18 Naturally… Y     2-Wh…
##  7 Audi…          2           4     6 Manual          26 Turbochar… Y     All …
##  8 BMW …          3           6     7 Manual          20 Turbochar… N     2-Wh…
##  9 Buga…          8          16     7 Manual          11 Turbochar… Y     All …
## 10 Chev…          6.2         8     8 Automatic       18 Naturally… Y     2-Wh…
## # … with 1,134 more rows, and 3 more variables: MaxEthanol <dbl>, Fuel <chr>,
## #   FuelInjection <chr>
```
…
---
### Assessment solution

```r
df <- filter(cars2018, Transmission == "CVT")
df2 <- select(df, -FuelInjection, -Aspiration, -LTC)
df3 <- arrange(df2, desc(MPG), Model)

df3
```

```
## # A tibble: 85 x 12
##    Model    ID Displacement Cylinders Gears Transmission   MPG Drive MaxEthanol
##    <chr> <dbl>        <dbl>     <dbl> <dbl> <chr>        <dbl> <chr>      <dbl>
##  1 TOYO…    75          1.8         4     1 CVT             56 2-Wh…         15
##  2 TOYO…    14          2.5         4     6 CVT             52 2-Wh…         15
##  3 TOYO…    74          1.8         4     1 CVT             52 2-Wh…         15
##  4 Chev…   260          1.8         4     1 CVT             46 2-Wh…         10
##  5 TOYO…    15          2.5         4     6 CVT             46 2-Wh…         15
##  6 TOYO…    18          1.5         4     1 CVT             46 2-Wh…         15
##  7 Ford…    43          2           4     1 CVT             42 2-Wh…         15
##  8 Ford…    63          2           4     1 CVT             40 2-Wh…         15
##  9 LEXU…    25          2.5         4     6 CVT             40 2-Wh…         15
## 10 Linc…    44          2           4     1 CVT             40 2-Wh…         15
## # … with 75 more rows, and 3 more variables: Fuel <chr>, Intake <dbl>,
## #   Exhaust <dbl>
```
…
  * You could also have overwritten the data frame at each step.
    * your environment is less cluttered
    * but seeing the intermediate data may help with troubleshooting/debugging your code

```r
df <- filter(cars2018, Transmission == "CVT")
df <- select(df, -FuelInjection, -Aspiration, -LTC)
df <- arrange(df, desc(MPG), Model)

df
```

```
## # A tibble: 85 x 12
##    Model    ID Displacement Cylinders Gears Transmission   MPG Drive MaxEthanol
##    <chr> <dbl>        <dbl>     <dbl> <dbl> <chr>        <dbl> <chr>      <dbl>
##  1 TOYO…    75          1.8         4     1 CVT             56 2-Wh…         15
##  2 TOYO…    14          2.5         4     6 CVT             52 2-Wh…         15
##  3 TOYO…    74          1.8         4     1 CVT             52 2-Wh…         15
##  4 Chev…   260          1.8         4     1 CVT             46 2-Wh…         10
##  5 TOYO…    15          2.5         4     6 CVT             46 2-Wh…         15
##  6 TOYO…    18          1.5         4     1 CVT             46 2-Wh…         15
##  7 Ford…    43          2           4     1 CVT             42 2-Wh…         15
##  8 Ford…    63          2           4     1 CVT             40 2-Wh…         15
##  9 LEXU…    25          2.5         4     6 CVT             40 2-Wh…         15
## 10 Linc…    44          2           4     1 CVT             40 2-Wh…         15
## # … with 75 more rows, and 3 more variables: Fuel <chr>, Intake <dbl>,
## #   Exhaust <dbl>
```
…
---

## group_by

#### A function to put the data into groups (before you summarise)

What if we wanted summary statistics for Automatic, Manual and CVT?

```r
grouped_cars <- group_by(cars2018, Transmission)
grouped_cars
```

```
## # A tibble: 1,144 x 15
## # Groups:   Transmission [3]
##    Model    ID Displacement Cylinders Gears Transmission   MPG Aspiration LTC  
##    <chr> <dbl>        <dbl>     <dbl> <dbl> <chr>        <dbl> <chr>      <chr>
##  1 Acur…    57          3.5         6     9 Manual          21 Turbochar… Y    
##  2 ALFA…   410          1.8         4     6 Manual          28 Turbochar… Y    
##  3 Audi…    65          5.2        10     7 Manual          17 Naturally… Y    
##  4 Audi…    71          5.2        10     7 Manual          18 Naturally… Y    
##  5 Audi…    66          5.2        10     7 Manual          17 Naturally… Y    
##  6 Audi…    72          5.2        10     7 Manual          18 Naturally… Y    
##  7 Audi…    46          2           4     6 Manual          26 Turbochar… Y    
##  8 BMW …   488          3           6     7 Manual          20 Turbochar… N    
##  9 Buga…    38          8          16     7 Manual          11 Turbochar… Y    
## 10 Chev…   278          6.2         8     8 Automatic       18 Naturally… Y    
## # … with 1,134 more rows, and 6 more variables: Drive <chr>, MaxEthanol <dbl>,
## #   Fuel <chr>, Intake <dbl>, Exhaust <dbl>, FuelInjection <chr>
```

---

#### How is the grouped data frame different from the original?
--

```r
grouped_cars
```

```
## # A tibble: 1,144 x 15
## # Groups:   Transmission [3]
##    Model    ID Displacement Cylinders Gears Transmission   MPG Aspiration LTC  
##    <chr> <dbl>        <dbl>     <dbl> <dbl> <chr>        <dbl> <chr>      <chr>
##  1 Acur…    57          3.5         6     9 Manual          21 Turbochar… Y    
##  2 ALFA…   410          1.8         4     6 Manual          28 Turbochar… Y    
##  3 Audi…    65          5.2        10     7 Manual          17 Naturally… Y    
##  4 Audi…    71          5.2        10     7 Manual          18 Naturally… Y    
##  5 Audi…    66          5.2        10     7 Manual          17 Naturally… Y    
##  6 Audi…    72          5.2        10     7 Manual          18 Naturally… Y    
##  7 Audi…    46          2           4     6 Manual          26 Turbochar… Y    
##  8 BMW …   488          3           6     7 Manual          20 Turbochar… N    
##  9 Buga…    38          8          16     7 Manual          11 Turbochar… Y    
## 10 Chev…   278          6.2         8     8 Automatic       18 Naturally… Y    
## # … with 1,134 more rows, and 6 more variables: Drive <chr>, MaxEthanol <dbl>,
## #   Fuel <chr>, Intake <dbl>, Exhaust <dbl>, FuelInjection <chr>
```
…
